^C:\USERS\NGUYE\DESKTOP\GIT UPDATE\LINEAR_MODEL\LINEAR_MODEL\COMMONLIB.CPP|C:\USERS\NGUYE\DESKTOP\GIT UPDATE\LINEAR_MODEL\LINEAR_MODEL\LINEARREGRESSION.CPP|C:\USERS\NGUYE\DESKTOP\GIT UPDATE\LINEAR_MODEL\LINEAR_MODEL\MAIN.CPP
C:\USERS\NGUYE\DESKTOP\GIT UPDATE\LINEAR_MODEL\LINEAR_MODEL\DEBUG\COMMONLIB.OBJ
C:\USERS\NGUYE\DESKTOP\GIT UPDATE\LINEAR_MODEL\LINEAR_MODEL\DEBUG\LINEARREGRESSION.OBJ
C:\USERS\NGUYE\DESKTOP\GIT UPDATE\LINEAR_MODEL\LINEAR_MODEL\DEBUG\MAIN.OBJ
^C:\USERS\NGUYE\DESKTOP\GIT UPDATE\LINEAR_MODEL\LINEAR_MODEL\COMMONLIB.CPP
C:\USERS\NGUYE\DESKTOP\GIT UPDATE\LINEAR_MODEL\LINEAR_MODEL\DEBUG\VC110.PDB
^C:\USERS\NGUYE\DESKTOP\GIT UPDATE\LINEAR_MODEL\LINEAR_MODEL\LINEARREGRESSION.CPP
C:\USERS\NGUYE\DESKTOP\GIT UPDATE\LINEAR_MODEL\LINEAR_MODEL\DEBUG\VC110.PDB
^C:\USERS\NGUYE\DESKTOP\GIT UPDATE\LINEAR_MODEL\LINEAR_MODEL\MAIN.CPP
C:\USERS\NGUYE\DESKTOP\GIT UPDATE\LINEAR_MODEL\LINEAR_MODEL\DEBUG\VC110.PDB
C:\USERS\NGUYE\DESKTOP\GIT UPDATE\LINEAR_MODEL\LINEAR_MODEL\DEBUG\MAIN.OBJ
